('/home/brandonrosano/PycharmProjects/Pygalaga/dist/main',
 False,
 False,
 False,
 None,
 None,
 False,
 False,
 None,
 True,
 'main.pkg',
 [('PYZ-00.pyz',
   '/home/brandonrosano/PycharmProjects/Pygalaga/build/main/PYZ-00.pyz',
   'PYZ'),
  ('struct',
   '/home/brandonrosano/PycharmProjects/Pygalaga/build/main/localpycos/struct.pyo',
   'PYMODULE'),
  ('pyimod01_os_path',
   '/home/brandonrosano/.local/lib/python3.7/site-packages/PyInstaller/loader/pyimod01_os_path.pyc',
   'PYMODULE'),
  ('pyimod02_archive',
   '/home/brandonrosano/.local/lib/python3.7/site-packages/PyInstaller/loader/pyimod02_archive.pyc',
   'PYMODULE'),
  ('pyimod03_importers',
   '/home/brandonrosano/.local/lib/python3.7/site-packages/PyInstaller/loader/pyimod03_importers.pyc',
   'PYMODULE'),
  ('pyiboot01_bootstrap',
   '/home/brandonrosano/.local/lib/python3.7/site-packages/PyInstaller/loader/pyiboot01_bootstrap.py',
   'PYSOURCE'),
  ('pyi_rth_pkgres',
   '/home/brandonrosano/.local/lib/python3.7/site-packages/PyInstaller/hooks/rthooks/pyi_rth_pkgres.py',
   'PYSOURCE'),
  ('main', '/home/brandonrosano/PycharmProjects/Pygalaga/main.py', 'PYSOURCE'),
  ('libexpat.so.1', '/lib/x86_64-linux-gnu/libexpat.so.1', 'BINARY'),
  ('libz.so.1', '/lib/x86_64-linux-gnu/libz.so.1', 'BINARY'),
  ('_hashlib',
   '/usr/lib/python3.7/lib-dynload/_hashlib.cpython-37m-x86_64-linux-gnu.so',
   'EXTENSION'),
  ('_uuid',
   '/usr/lib/python3.7/lib-dynload/_uuid.cpython-37m-x86_64-linux-gnu.so',
   'EXTENSION'),
  ('_ctypes',
   '/usr/lib/python3.7/lib-dynload/_ctypes.cpython-37m-x86_64-linux-gnu.so',
   'EXTENSION'),
  ('_lzma',
   '/usr/lib/python3.7/lib-dynload/_lzma.cpython-37m-x86_64-linux-gnu.so',
   'EXTENSION'),
  ('_bz2',
   '/usr/lib/python3.7/lib-dynload/_bz2.cpython-37m-x86_64-linux-gnu.so',
   'EXTENSION'),
  ('_ssl',
   '/usr/lib/python3.7/lib-dynload/_ssl.cpython-37m-x86_64-linux-gnu.so',
   'EXTENSION'),
  ('termios',
   '/usr/lib/python3.7/lib-dynload/termios.cpython-37m-x86_64-linux-gnu.so',
   'EXTENSION'),
  ('readline',
   '/usr/lib/python3.7/lib-dynload/readline.cpython-37m-x86_64-linux-gnu.so',
   'EXTENSION'),
  ('_opcode',
   '/usr/lib/python3.7/lib-dynload/_opcode.cpython-37m-x86_64-linux-gnu.so',
   'EXTENSION'),
  ('resource',
   '/usr/lib/python3.7/lib-dynload/resource.cpython-37m-x86_64-linux-gnu.so',
   'EXTENSION'),
  ('_multibytecodec',
   '/usr/lib/python3.7/lib-dynload/_multibytecodec.cpython-37m-x86_64-linux-gnu.so',
   'EXTENSION'),
  ('_codecs_iso2022',
   '/usr/lib/python3.7/lib-dynload/_codecs_iso2022.cpython-37m-x86_64-linux-gnu.so',
   'EXTENSION'),
  ('_codecs_hk',
   '/usr/lib/python3.7/lib-dynload/_codecs_hk.cpython-37m-x86_64-linux-gnu.so',
   'EXTENSION'),
  ('_codecs_tw',
   '/usr/lib/python3.7/lib-dynload/_codecs_tw.cpython-37m-x86_64-linux-gnu.so',
   'EXTENSION'),
  ('_codecs_jp',
   '/usr/lib/python3.7/lib-dynload/_codecs_jp.cpython-37m-x86_64-linux-gnu.so',
   'EXTENSION'),
  ('_codecs_kr',
   '/usr/lib/python3.7/lib-dynload/_codecs_kr.cpython-37m-x86_64-linux-gnu.so',
   'EXTENSION'),
  ('_codecs_cn',
   '/usr/lib/python3.7/lib-dynload/_codecs_cn.cpython-37m-x86_64-linux-gnu.so',
   'EXTENSION'),
  ('pygame.imageext',
   '/home/brandonrosano/.local/lib/python3.7/site-packages/pygame/imageext.cpython-37m-x86_64-linux-gnu.so',
   'EXTENSION'),
  ('pygame.fastevent',
   '/home/brandonrosano/.local/lib/python3.7/site-packages/pygame/fastevent.cpython-37m-x86_64-linux-gnu.so',
   'EXTENSION'),
  ('pygame.scrap',
   '/home/brandonrosano/.local/lib/python3.7/site-packages/pygame/scrap.cpython-37m-x86_64-linux-gnu.so',
   'EXTENSION'),
  ('pygame.mixer',
   '/home/brandonrosano/.local/lib/python3.7/site-packages/pygame/mixer.cpython-37m-x86_64-linux-gnu.so',
   'EXTENSION'),
  ('pygame.mixer_music',
   '/home/brandonrosano/.local/lib/python3.7/site-packages/pygame/mixer_music.cpython-37m-x86_64-linux-gnu.so',
   'EXTENSION'),
  ('pygame.font',
   '/home/brandonrosano/.local/lib/python3.7/site-packages/pygame/font.cpython-37m-x86_64-linux-gnu.so',
   'EXTENSION'),
  ('pygame._freetype',
   '/home/brandonrosano/.local/lib/python3.7/site-packages/pygame/_freetype.cpython-37m-x86_64-linux-gnu.so',
   'EXTENSION'),
  ('pygame.transform',
   '/home/brandonrosano/.local/lib/python3.7/site-packages/pygame/transform.cpython-37m-x86_64-linux-gnu.so',
   'EXTENSION'),
  ('pygame.time',
   '/home/brandonrosano/.local/lib/python3.7/site-packages/pygame/time.cpython-37m-x86_64-linux-gnu.so',
   'EXTENSION'),
  ('pygame.overlay',
   '/home/brandonrosano/.local/lib/python3.7/site-packages/pygame/overlay.cpython-37m-x86_64-linux-gnu.so',
   'EXTENSION'),
  ('pygame.pixelarray',
   '/home/brandonrosano/.local/lib/python3.7/site-packages/pygame/pixelarray.cpython-37m-x86_64-linux-gnu.so',
   'EXTENSION'),
  ('pygame.mask',
   '/home/brandonrosano/.local/lib/python3.7/site-packages/pygame/mask.cpython-37m-x86_64-linux-gnu.so',
   'EXTENSION'),
  ('pygame.surface',
   '/home/brandonrosano/.local/lib/python3.7/site-packages/pygame/surface.cpython-37m-x86_64-linux-gnu.so',
   'EXTENSION'),
  ('pygame.pixelcopy',
   '/home/brandonrosano/.local/lib/python3.7/site-packages/pygame/pixelcopy.cpython-37m-x86_64-linux-gnu.so',
   'EXTENSION'),
  ('_queue',
   '/usr/lib/python3.7/lib-dynload/_queue.cpython-37m-x86_64-linux-gnu.so',
   'EXTENSION'),
  ('pygame.mouse',
   '/home/brandonrosano/.local/lib/python3.7/site-packages/pygame/mouse.cpython-37m-x86_64-linux-gnu.so',
   'EXTENSION'),
  ('pygame.key',
   '/home/brandonrosano/.local/lib/python3.7/site-packages/pygame/key.cpython-37m-x86_64-linux-gnu.so',
   'EXTENSION'),
  ('pygame.joystick',
   '/home/brandonrosano/.local/lib/python3.7/site-packages/pygame/joystick.cpython-37m-x86_64-linux-gnu.so',
   'EXTENSION'),
  ('pygame.image',
   '/home/brandonrosano/.local/lib/python3.7/site-packages/pygame/image.cpython-37m-x86_64-linux-gnu.so',
   'EXTENSION'),
  ('pygame.event',
   '/home/brandonrosano/.local/lib/python3.7/site-packages/pygame/event.cpython-37m-x86_64-linux-gnu.so',
   'EXTENSION'),
  ('pygame.draw',
   '/home/brandonrosano/.local/lib/python3.7/site-packages/pygame/draw.cpython-37m-x86_64-linux-gnu.so',
   'EXTENSION'),
  ('pygame.display',
   '/home/brandonrosano/.local/lib/python3.7/site-packages/pygame/display.cpython-37m-x86_64-linux-gnu.so',
   'EXTENSION'),
  ('pygame.cdrom',
   '/home/brandonrosano/.local/lib/python3.7/site-packages/pygame/cdrom.cpython-37m-x86_64-linux-gnu.so',
   'EXTENSION'),
  ('pygame.math',
   '/home/brandonrosano/.local/lib/python3.7/site-packages/pygame/math.cpython-37m-x86_64-linux-gnu.so',
   'EXTENSION'),
  ('pygame.bufferproxy',
   '/home/brandonrosano/.local/lib/python3.7/site-packages/pygame/bufferproxy.cpython-37m-x86_64-linux-gnu.so',
   'EXTENSION'),
  ('pygame.color',
   '/home/brandonrosano/.local/lib/python3.7/site-packages/pygame/color.cpython-37m-x86_64-linux-gnu.so',
   'EXTENSION'),
  ('pygame.surflock',
   '/home/brandonrosano/.local/lib/python3.7/site-packages/pygame/surflock.cpython-37m-x86_64-linux-gnu.so',
   'EXTENSION'),
  ('pygame.rwobject',
   '/home/brandonrosano/.local/lib/python3.7/site-packages/pygame/rwobject.cpython-37m-x86_64-linux-gnu.so',
   'EXTENSION'),
  ('pygame.rect',
   '/home/brandonrosano/.local/lib/python3.7/site-packages/pygame/rect.cpython-37m-x86_64-linux-gnu.so',
   'EXTENSION'),
  ('pygame.constants',
   '/home/brandonrosano/.local/lib/python3.7/site-packages/pygame/constants.cpython-37m-x86_64-linux-gnu.so',
   'EXTENSION'),
  ('pygame.base',
   '/home/brandonrosano/.local/lib/python3.7/site-packages/pygame/base.cpython-37m-x86_64-linux-gnu.so',
   'EXTENSION'),
  ('libssl.so.1.1', '/lib/x86_64-linux-gnu/libssl.so.1.1', 'BINARY'),
  ('libcrypto.so.1.1', '/lib/x86_64-linux-gnu/libcrypto.so.1.1', 'BINARY'),
  ('libuuid.so.1', '/lib/x86_64-linux-gnu/libuuid.so.1', 'BINARY'),
  ('libffi.so.6', '/lib/x86_64-linux-gnu/libffi.so.6', 'BINARY'),
  ('liblzma.so.5', '/lib/x86_64-linux-gnu/liblzma.so.5', 'BINARY'),
  ('libbz2.so.1.0', '/lib/x86_64-linux-gnu/libbz2.so.1.0', 'BINARY'),
  ('libtinfo.so.6', '/lib/x86_64-linux-gnu/libtinfo.so.6', 'BINARY'),
  ('libreadline.so.7', '/lib/x86_64-linux-gnu/libreadline.so.7', 'BINARY'),
  ('libtiff-97e44e95.so.3.8.2',
   '/home/brandonrosano/.local/lib/python3.7/site-packages/pygame/.libs/./libtiff-97e44e95.so.3.8.2',
   'BINARY'),
  ('libz-a147dcb0.so.1.2.3',
   '/home/brandonrosano/.local/lib/python3.7/site-packages/pygame/.libs/./libz-a147dcb0.so.1.2.3',
   'BINARY'),
  ('libwebp-ec096d5f.so.7.0.4',
   '/home/brandonrosano/.local/lib/python3.7/site-packages/pygame/.libs/./libwebp-ec096d5f.so.7.0.4',
   'BINARY'),
  ('libSDL-1-c39928c2.2.so.0.11.4',
   '/home/brandonrosano/.local/lib/python3.7/site-packages/pygame/.libs/libSDL-1-c39928c2.2.so.0.11.4',
   'BINARY'),
  ('libpng16-e11200e8.so.16.36.0',
   '/home/brandonrosano/.local/lib/python3.7/site-packages/pygame/.libs/libpng16-e11200e8.so.16.36.0',
   'BINARY'),
  ('libjpeg-bd53fca1.so.62.0.0',
   '/home/brandonrosano/.local/lib/python3.7/site-packages/pygame/.libs/libjpeg-bd53fca1.so.62.0.0',
   'BINARY'),
  ('libSDL_image-1-c6cf9ff4.2.so.0.8.4',
   '/home/brandonrosano/.local/lib/python3.7/site-packages/pygame/.libs/libSDL_image-1-c6cf9ff4.2.so.0.8.4',
   'BINARY'),
  ('libXau.so.6', '/lib/x86_64-linux-gnu/libXau.so.6', 'BINARY'),
  ('libbsd.so.0', '/lib/x86_64-linux-gnu/libbsd.so.0', 'BINARY'),
  ('libX11.so.6', '/lib/x86_64-linux-gnu/libX11.so.6', 'BINARY'),
  ('libXdmcp.so.6', '/lib/x86_64-linux-gnu/libXdmcp.so.6', 'BINARY'),
  ('libsndfile-d5ecee11.so.1.0.17',
   '/home/brandonrosano/.local/lib/python3.7/site-packages/pygame/.libs/./libsndfile-d5ecee11.so.1.0.17',
   'BINARY'),
  ('libSDL_mixer-1-9fea1499.2.so.0.12.0',
   '/home/brandonrosano/.local/lib/python3.7/site-packages/pygame/.libs/libSDL_mixer-1-9fea1499.2.so.0.12.0',
   'BINARY'),
  ('libpcre.so.3', '/lib/x86_64-linux-gnu/libpcre.so.3', 'BINARY'),
  ('libFLAC-6cefaab3.so.8.3.0',
   '/home/brandonrosano/.local/lib/python3.7/site-packages/pygame/.libs/./libFLAC-6cefaab3.so.8.3.0',
   'BINARY'),
  ('libglib-2.0.so.0', '/lib/x86_64-linux-gnu/libglib-2.0.so.0', 'BINARY'),
  ('libsmpeg-0-7159ee15.4.so.0.1.4',
   '/home/brandonrosano/.local/lib/python3.7/site-packages/pygame/.libs/./libsmpeg-0-7159ee15.4.so.0.1.4',
   'BINARY'),
  ('libvorbisfile-f207f3a6.so.3.3.7',
   '/home/brandonrosano/.local/lib/python3.7/site-packages/pygame/.libs/./libvorbisfile-f207f3a6.so.3.3.7',
   'BINARY'),
  ('libogg-0d584846.so.0.8.3',
   '/home/brandonrosano/.local/lib/python3.7/site-packages/pygame/.libs/./libogg-0d584846.so.0.8.3',
   'BINARY'),
  ('libstdc++.so.6', '/lib/x86_64-linux-gnu/libstdc++.so.6', 'BINARY'),
  ('libgthread-2.0.so.0',
   '/lib/x86_64-linux-gnu/libgthread-2.0.so.0',
   'BINARY'),
  ('libdbus-1-30e56626.so.3.4.0',
   '/home/brandonrosano/.local/lib/python3.7/site-packages/pygame/.libs/./libdbus-1-30e56626.so.3.4.0',
   'BINARY'),
  ('libcap-5fec18ee.so.1.10',
   '/home/brandonrosano/.local/lib/python3.7/site-packages/pygame/.libs/./libcap-5fec18ee.so.1.10',
   'BINARY'),
  ('libvorbis-373f4a71.so.0.4.8',
   '/home/brandonrosano/.local/lib/python3.7/site-packages/pygame/.libs/./libvorbis-373f4a71.so.0.4.8',
   'BINARY'),
  ('libmikmod-fabcac29.so.2.0.4',
   '/home/brandonrosano/.local/lib/python3.7/site-packages/pygame/.libs/./libmikmod-fabcac29.so.2.0.4',
   'BINARY'),
  ('libfluidsynth-e2f12a37.so.1.5.2',
   '/home/brandonrosano/.local/lib/python3.7/site-packages/pygame/.libs/./libfluidsynth-e2f12a37.so.1.5.2',
   'BINARY'),
  ('libgcc_s.so.1', '/lib/x86_64-linux-gnu/libgcc_s.so.1', 'BINARY'),
  ('libfreetype-b48c0f70.so.6.15.0',
   '/home/brandonrosano/.local/lib/python3.7/site-packages/pygame/.libs/./libfreetype-b48c0f70.so.6.15.0',
   'BINARY'),
  ('libSDL_ttf-2-254ab10f.0.so.0.10.1',
   '/home/brandonrosano/.local/lib/python3.7/site-packages/pygame/.libs/libSDL_ttf-2-254ab10f.0.so.0.10.1',
   'BINARY'),
  ('libpython3.7m.so.1.0',
   '/lib/x86_64-linux-gnu/libpython3.7m.so.1.0',
   'BINARY'),
  ('base_library.zip',
   '/home/brandonrosano/PycharmProjects/Pygalaga/build/main/base_library.zip',
   'DATA'),
  ('include/python3.7m/pyconfig.h',
   '/usr/include/python3.7m/pyconfig.h',
   'DATA'),
  ('lib/python3.7/config-3.7m-x86_64-linux-gnu/Makefile',
   '/usr/lib/python3.7/config-3.7m-x86_64-linux-gnu/Makefile',
   'DATA')],
 [],
 False,
 False,
 1600888263,
 [('run',
   '/home/brandonrosano/.local/lib/python3.7/site-packages/PyInstaller/bootloader/Linux-64bit/run',
   'EXECUTABLE')])
